番号,43,;8-1
名前,茨木 華扇,
呼び名,華扇,
基礎,体力,2300
基礎,気力,1300
基礎,勃起,1500
基礎,法力,3100
基礎,ムード,1500
基礎,理性,1000
基礎,怒り,1000
基礎,仕事量,0
基礎,深度,2000
基礎,酒気,2500
素質,処女,1
素質,性別,1
素質,度胸,1;気丈
素質,プライド,1;プライド高い
素質,自制心,1
素質,性的興味,-1;保守的
素質,一線越えない,1
素質,貞操,1;貞操観念
素質,羞恥心,1;恥じらい
素質,禁断の知識,1
素質,汚臭耐性,-1;汚臭敏感
素質,献身的,1
素質,快感応答,-1;快感の否定
素質,サド,1
素質,Ｂ感度,1;Ｂ敏感
素質,バストサイズ,1;巨乳
素質,酒耐性,2;酒豪
素質,妖怪,2;鬼
素質,健啖,1
素質,掃除係,1
能力,技巧,1
能力,奉仕精神,1

能力,清掃技能,3
能力,話術技能,3
能力,戦闘能力,3
能力,教養,4
能力,料理技能,2
能力,音楽技能,0
素質,伐採Lv,5
素質,釣りLv,2
素質,採集Lv,3
素質,調合Lv,2

経験,絶頂経験,10
経験,自慰経験,10
経験,異常経験,2
フラグ,基本服装セット,143;服装
フラグ,地位,700;地位
フラグ,初期位置,727;開始位置;EX
フラグ,422,1;人里来訪率補正
フラグ,420,1;神社来訪率補正
フラグ,来訪時間,660;11時
フラグ,帰宅時間,1320;22時
フラグ,就寝時間,60;1時
フラグ,起床時間,420;7時
フラグ,よく行く地域,0
フラグ,自宅位置,750;仙人の屋敷
フラグ,大家候補,728
フラグ,住み込み必要信頼度,200
フラグ,移動節度,1
フラグ,弾幕特能,49
フラグ,口調,1
フラグ,別顔有,1
相性,1,150;霊夢
相性,11,120;魔理沙
相性,31,120;早苗
相性,69,120;マミゾウ
相性,76,80;小町
相性,106,120;菫子
相性,124,110;隠岐奈

CSTR,仕事情報,食べ歩き　土曜日　11時～16時
CSTR,職場,里の広場
CSTR,9,仙人の屋敷・空き部屋
CSTR,10,～片腕有角の仙人～　●種族：仙人？　●能力：
フラグ,産休タイプ,2；60日目から休む