番号,144
名前,茨木童子の腕,
呼び名,影華扇,
基礎,体力,2300
基礎,気力,1300
基礎,勃起,1500
基礎,法力,3100
基礎,ムード,1500
基礎,理性,1000
基礎,怒り,1000
基礎,仕事量,0
基礎,深度,2000
基礎,酒気,2500
素質,処女,1
素質,性別,1
素質,度胸,1;気丈
素質,プライド,1;プライド高い
素質,自制心,1
素質,キス未経験,1
素質,態度,1;反抗的
素質,応答,1;生意気
素質,性的興味,1;好奇心
素質,貞操,-1;貞操無頓着
素質,羞恥心,-1;恥薄い
素質,汚臭耐性,1;汚臭鈍感
素質,快感応答,1;快感に素直
素質,濡れやすさ,-1
素質,サド,1
素質,Ｂ感度,1;Ｂ敏感
素質,バストサイズ,1;巨乳
素質,酒耐性,2;酒豪
素質,妖怪,2;鬼
素質,健啖,1

能力,話術技能,1
能力,戦闘能力,5
能力,教養,2
能力,欲望,2
素質,伐採Lv,5
素質,採集Lv,1
素質,調合Lv,1

経験,絶頂経験,50
経験,自慰経験,50
経験,異常経験,1
フラグ,基本服装セット,244;服装
フラグ,地位,700;地位
フラグ,初期位置,99;開始位置;EX

フラグ,来訪時間,1200;20時
フラグ,帰宅時間,360;6時
フラグ,就寝時間,480;8時
フラグ,起床時間,1080;18時
フラグ,よく行く地域,6
フラグ,移動節度,-1
フラグ,弾幕特能,49
フラグ,別顔有,1
相性,43,200;華扇

CSTR,10,～断善修悪の怪腕～　●種族：鬼　●能力：
フラグ,産休タイプ,2；60日目から休む