番号,149,
名前,オレンジ,
呼び名,オレンジ,
基礎,体力,2000
基礎,気力,1400
基礎,勃起,1500
基礎,精力,10000
基礎,法力,1000
基礎,ムード,1500
基礎,理性,1000
基礎,怒り,1000
基礎,仕事量,0
基礎,深度,2000
基礎,酒気,1500

素質,性別,1

素質,処女,1
素質,度胸,-1;臆病
素質,プライド,-1 ;プライド低い
素質,性的興味,1;好奇心
素質,態度,-1;素直
素質,陽気／陰気,-1 ;悲観的
素質,目立ちたがり,1
素質,痛覚,1;痛みに弱い
素質,献身的,1
素質,妖怪,1

能力,腰,2
経験,舞踏経験,100
経験,異常経験,3

能力,清掃技能,0
能力,話術技能,0
能力,戦闘能力,1
能力,教養,1
能力,料理技能,1
能力,音楽技能,3
素質,伐採Lv,2
素質,釣りLv,2
素質,採集Lv,1
素質,調合Lv,0

フラグ,基本服装セット,239;服装
フラグ,地位,0;地位
フラグ,初期位置,740;開始位置
フラグ,来訪時間,540;9時
フラグ,帰宅時間,1200;20時
フラグ,起床時間,540;9時
フラグ,就寝時間,1200;20時
フラグ,自宅位置,710;麓の樹海
;CSTR,仕事情報,
;CSTR,職場,
フラグ,弾幕特能,128
フラグ,よく行く地域,3

CSTR,10,●種族：妖怪

フラグ,移動節度,-1

相性,1,50 ;Reimu
相性,58,120 ;Meiling
相性,24,90 ;Chen
相性,34,80 ;Hina
相性,51,120 ;Nitori
相性,77,120 ;Shizuha
相性,78,120 ;Minoriko
相性,119,120 ;Nemuno
相性,97,80 ;Seija
相性,43,80 ;Kasen
