・埋まってるうふふコマンド（セクハラは除く）

☆埋まってるうふふコマンドと特殊分岐一覧☆
・一日の開始前に【UPDATE】を押すことで地の文のオンオフが可能
・口上的には表示を推奨。でもお好きな方でどうぞ


----------------------------------------------------------------------------
----------------------------------------------------------------------------
◎あなた主導のうふふコマンド
・基本的に恋慕or非恋慕で分岐あり
----------------------------------------------------------------------------
----------------------------------------------------------------------------
※コマンド
180,ローション（特殊分岐なし）
181,媚薬（特殊分岐なし）
188,シャワー（開始時・終了時で分岐）
189,新妻プレイ（開始時・終了時で分岐）
----------------------------------------------------------------------------
※愛撫系コマンド
0,愛撫（挿入中かつあなたが射精したと同時に絶頂したかで分岐あり）
1,クンニ（膣内射精直後に実行したかで分岐あり）
3,指挿入れ（バイブ挿入中に分岐あり）
4,アナル舐め（恋慕かつＡ感覚４以上で分岐）
5,アナル愛撫（アナルバイブ挿入中に分岐あり）
6,胸愛撫（挿入中かつあなたが射精したと同時に豊姫がＢ絶頂で分岐。母乳体質で分岐）
7,乳首責め（胸愛撫と口上は共通。また加筆します）
8,秘貝開帳（露出癖で分岐。膣内射精直後に実行したかで分岐）
9,自慰（バイブがＶorＡor両穴に挿入中か、あなたが性交中か、自慰中毒が３以上かで分岐）
11,乳首吸い（母乳体質で分岐）
12,胸もみ（胸愛撫と口上は共通。また加筆します）
15,クリ愛撫（特殊分岐なし）
20,キスする（特殊分岐なし）
21,何もしない（露出癖５以上かつ屋外で実行時に遠隔調教に分岐可能）
----------------------------------------------------------------------------
※加虐系コマンド
100,スパンキング（豊姫のマゾっ気が２以上で分岐）
104,アイマスク（同上）
105,縄（同上）
----------------------------------------------------------------------------
※性交系コマンド
60,対面立位（挿入継続時とあなたが射精したかで分岐）
60,正常位（同上）
61,背面立位（同上）
61,後背位（同上）
65,騎乗位（同上）
67,対面座位（同上）
68,背面座位（同上）
----------------------------------------------------------------------------
※派生コマンド
・ダブル系は相方がレイセンor依姫の場合のみ表示されます
1,シックスナイン（あなたが射精したかで分岐）
9,ダブルフェラ（同上）
10,ダブル素股（同上）
11,ダブルパイズリ（同上）
13,交互挿入（挿入継続時・あなたが射精したか。前回中出ししたかで分岐）
----------------------------------------------------------------------------
※奉仕系コマンド
80,手淫（あなたが射精したかで分岐）
81,フェラチオ（同上）
82,パイズリ（同上）
83,素股（同上）
84,泡踊り（同上）
85,足扱き（同上）
88,バキュームフェラ（フェラチオと口上は共通。また加筆します）
----------------------------------------------------------------------------



----------------------------------------------------------------------------
----------------------------------------------------------------------------
◎豊姫主導のうふふコマンド【素直系】
・押し倒されるには【恋慕】【セフレ】【ヤリマン】のいずれかが必要
・ただし連れ込み宿・ラブホで豊姫に押し倒されるイベント時には上記陥落素質が無くても押し倒される
・特定のカウンターに対してコマンドを実行すると分岐。以下は分岐するカウンター
・具体的な地の文は【ERB/ステータス計算関連/COUNTER/COUNTER_MESSAGE】を参照してください
----------------------------------------------------------------------------
----------------------------------------------------------------------------
※キスする
CASE 32 前から抱きつく
CASE 50 手淫
CASE 85=Ｖ挿入する 87=Ａ挿入する 88=腰振りＶ 89=腰振りＡ
CASE 86 だいしゅきホールド
それ以外（愛撫系コマンドから同名コマンドを読み込む）
----------------------------------------------------------------------------
※胸愛撫
CASE 27 谷間を見せる
CASE 33 胸を揉ませる
CASE 53 パイズリ
CASE 73 ぱふぱふ
CASE 74 乳合わせ
CASE 77 乳を吸わせる
CASE 85=Ｖ挿入する 87=Ａ挿入する 88=腰振りＶ 89=腰振りＡ
CASE 86 だいしゅきホールド
それ以外（愛撫系コマンドから同名コマンドを読み込む）
----------------------------------------------------------------------------
※アナル愛撫
・TCVAR:20 == 72 || TEQUIP:シックスナイン 顔面騎乗
・それ以外 
----------------------------------------------------------------------------
※クリ愛撫
CASE 35 スカートの中を見せる（Ｖ挿入中・精液でお腹が膨れているか・それ以外で分岐）
CASE 70 クンニ強制
CASE 85=Ｖ挿入する 86=だいしゅきホールド 87=Ａ挿入する 88=腰振りＶ 89=腰振りＡ
それ以外（愛撫系コマンドから同名コマンドを読み込む）
----------------------------------------------------------------------------
※指挿入れ
CASE 35 スカートの中を見せる（Ａ挿入中・精液でお腹が膨れているか・それ以外で分岐）
CASE 70 クンニ強制
CASE 87=Ａ挿入する 89=腰振りＡ
それ以外（愛撫系コマンドから同名コマンドを読み込む）
----------------------------------------------------------------------------
※腰を動かす（Ｖ）
・あなたの腰技能が３未満だと体位によって性交系コマンドから読み込む
・技能が高い場合は【激しく】【ねちっこく】【グラインド】で分岐
----------------------------------------------------------------------------
※相手主導正常位
・特殊分岐無し。３パターンから読み込む
----------------------------------------------------------------------------
※相手主導後背位
・特殊分岐無し。３パターンから読み込む
----------------------------------------------------------------------------
※スカートめくり
・挿入中か・精液でお腹が膨れているか・それ以外で分岐
----------------------------------------------------------------------------
※身を任せる
・既存の口上から対応する口上を読み込む
----------------------------------------------------------------------------