------------------------------------------------------------------------------------------
・更新履歴
------------------------------------------------------------------------------------------
2024/5/16
ver1.03
・愛撫系コマンド;自慰口上を追加
・性交系コマンド;背面立位口上を追加
・日常系コマンド;土産屋・釣り口上を追加

------------------------------------------------------------------------------------------
2024/5/5
ver1.02
・コマンド;ローション・媚薬・シャワー・新妻プレイ口上を追加
・日常系コマンド;自由行動口上を追加
・その他;テンプレを最新版に移行

------------------------------------------------------------------------------------------
2024/2/12
ver1.01
・派生コマンド;依姫とのダブル素股・ダブルパイズリを追加

------------------------------------------------------------------------------------------
2024/2/3
ver1.0
・イベント;恋慕取得口上に分岐を追加
・派生コマンド;依姫とのダブルフェラ・交互挿入を追加

------------------------------------------------------------------------------------------
2023/11/14
ver0.99
・愛撫系コマンド;遠隔調教イベントを実装

遠隔調教イベントの発生条件
豊姫の設定を口上推奨に変更済みで露出癖が５以上かつ屋外で行為中に【何もしない】を選択
人を選ぶイベントなので選択肢でオフにできます

------------------------------------------------------------------------------------------
2023/10/11
ver0.98
・絶頂;あなた射精・焦らし時の口上を新規追加

------------------------------------------------------------------------------------------
2023/6/25
ver0.97
・セクハラコマンド;セフレ分岐を加筆
・日常系コマンド；セフレ分岐を加筆

------------------------------------------------------------------------------------------
2023/2/15
ver0.96
・派生コマンド;誤字修正
・奉仕系コマンド;泡踊り 加筆

------------------------------------------------------------------------------------------
2023/2/14
ver0.95
・派生コマンド;ダブル素股・ダブルパイズリ 加筆

------------------------------------------------------------------------------------------
2022/12/15
ver0.94
・イベント;一日終了時自慰を加筆
・性交系コマンド;対面立位を加筆
・口上固有のキャラ紹介を追加。淫壺などの素質を取得するとコメントが増えていきます
・一部誤字等を修正

------------------------------------------------------------------------------------------
2022/9/17
ver0.93
・日常系コマンド;部屋に入る・外に出るを加筆
・派生コマンド;シックスナインを加筆
・細かい台詞を修正

------------------------------------------------------------------------------------------
2022/8/26
ver0.92
・愛撫系コマンド;胸愛撫・乳首吸いに母乳体質分岐を加筆

------------------------------------------------------------------------------------------
2022/5/15
ver0.9
・性交系コマンド;背面座位を加筆
・日常系コマンド;デート中に連れ込み宿・ラブホに行った時の口上と押し倒した時の口上を加筆
・細かい誤字を修正

ver0.91
2022/5/16
・日常系コマンド;身を任せるで対応する口上を表示するように
・ミスを修正

------------------------------------------------------------------------------------------
2022/4/7
ver0.83
・ミスを修正

------------------------------------------------------------------------------------------
2022/4/3
ver0.82
・イベント;浴場連れ出しを加筆
・誤字を修正

------------------------------------------------------------------------------------------
2022/3/19
ver0.81
・派生コマンド;相方がレイセンの場合の[ダブルフェラ][交互挿入]を追記（レイセン口上と同一内容）
・他、一部ミスを修正

2022/3/27
・一部ミスを修正
・埋まってるうふふコマンド一覧にダブル系を記述するのを忘れていたのを修正

------------------------------------------------------------------------------------------
2022/2/4
ver0.8
・イベント;押し倒された際の口上を加筆
・セクハラコマンド;押し倒されの開放に伴い以下のコマンドを加筆
（キスする・胸愛撫・アナル愛撫・クリ愛撫・指挿入れ・Ｖ腰を振る・相手主導正常位＆後背位・スカートめくり）
・依頼;汎用依頼口上を加筆
・日常系コマンド;押し倒された状態で押し倒し返した際の口上を加筆
・他、一部口上の加筆・変更・修正

封印していた豊姫に押し倒される機能を開放しました
詳しい仕様は同梱の【埋まってるうふふコマンド一覧】をご確認ください

------------------------------------------------------------------------------------------
2022/1/15
ver0.7
・イベント;[デート終了時][部屋で遭遇][朝起きたとき][陥落素質取得時]を加筆

2022/1/16
ver0.7修正版
・更新履歴のver表記が間違っていたので修正
・愛撫系コマンド;クリ愛撫を加筆

・他、一部口上の加筆・変更・修正

------------------------------------------------------------------------------------------
2022/1/2
ver0.61
・奉仕系コマンド;足扱きを加筆

うふふ中の口上側の地の文を非表示にする機能を実装
[UPDATE]で切り替え可能。地の文がくどいと思う方は非表示にしてください

2022/1/3
ver0.61修正版
・日常系コマンド;フェムトファイバーの説明を無限に聞き返せないように変更。戦闘訓練のバランスを調整

・他、一部口上を修正

------------------------------------------------------------------------------------------
2021/12/30
ver0.6
・セクハラコマンド;恋慕時に尻を撫でた際、溜まってる度が３０％以上だと一定確率で発情するように
・加虐系コマンド;スパンキング・アイマスク・縄を加筆
・性交系コマンド;恋慕時正常位挿入継続にアイマスク分岐を一部追加
・日常系コマンド;お弁当を食べる口上を一部加筆修正
・他、一部口上を修正
------------------------------------------------------------------------------------------
2021/12/24
ver0.52
・愛撫系コマンド;キス挿入時同時絶頂分岐を対面座位射精分岐に移設
・性交系コマンド;対面座位を加筆
・一部口上の内容を加筆修正

ここを加筆してくれ等の要望があればそちらを優先して加筆します
（例；アナルセックス大好きなのに口上が無いじゃん！早く加筆して！）
ただし過去のバージョンでも動くようにしてくれ等の要望は対応しかねます

------------------------------------------------------------------------------------------
2021/12/16
ver0.51
・イベント;面識をリセットしなくてもUPDATEで豊姫の設定を口上推奨に変更できるように
・日常系コマンド;一部口上を修正
------------------------------------------------------------------------------------------
2021/12/15
ver0.5
初版
------------------------------------------------------------------------------------------
