番号,162,;1-3
名前,Shanghai Doll,
呼び名,Shanghai,
基礎,体力,2100
基礎,気力,1100
基礎,勃起,1500
基礎,精力,10000
基礎,法力,2500
基礎,ムード,1500
基礎,理性,1000
基礎,怒り,1000
基礎,仕事量,2000
基礎,深度,2000
基礎,酒気,1200

素質,処女,1
素質,性別,1

素質,快感応答,1;enjoys pleasure
素質,性的興味,1;好奇心
素質,濡れやすさ,-1;hard to get wet
素質,習得速度,1;fast learner
素質,汚臭耐性,1;汚臭鈍感
素質,献身的,1; devoted

素質,体型,-5;inchling
素質,バストサイズ,-2;貧乳
素質,幼児／幼児退行,1;幼児
素質,幼稚,1
素質,人形,1

能力,Ｃ感覚,1
能力,奉仕精神,3

能力,清掃技能,0
能力,話術技能,0
能力,戦闘能力,2
能力,教養,0
能力,料理技能,0
能力,音楽技能,0
素質,伐採Lv,0
素質,釣りLv,0
素質,採集Lv,0
素質,調合Lv,0

フラグ,地位,600;地位
フラグ,初期位置,521;EX
フラグ,来訪時間,570;9.5時
フラグ,帰宅時間,1140;14時
フラグ,就寝時間,120;2時
フラグ,起床時間,540;9時
フラグ,よく行く地域,5
フラグ,自宅位置,550;人形の洋館
フラグ,住み込み必要信頼度,300
フラグ,口調,0

相性,17,150;alice
相性,75,200;medi
;相性,147,200;蓬莱人形
;相性,200;大江戸人形
;相性,200;ゴリアテ人形

CSTR,10,～Destructive Servant of Alice～　●Race：Doll　●Ability：Serving Alice

フラグ,産休タイプ,1；40日目から休む