番号,184,
名前,Maybell,
呼び名,Maybell,
基礎,体力,1000
基礎,気力,1000
基礎,射精,10000
基礎,勃起,1500
基礎,ムード,1500
基礎,理性,1000
基礎,怒り,1000
基礎,仕事量,1000
基礎,酒気,1500
;地位
フラグ,地位,0;地位
フラグ,自宅位置,0
フラグ,初期位置,99;開始位置

フラグ,移動節度,-1
フラグ,出禁,2