SAVE_DTS, Hediff
SAVE_DTS, ResearchProgress, ResearchDone
SAVE_DTS, PantyCollection, PANTS_TEMP
SAVE_DTS, FactionUnits
SAVE_DTS, SavedTempStats
SAVE_DTS, combatMagic
SAVE_DTS, CombatKills
SAVE_DTS, WeaponInventory