------------------------------------------------------------------------------------------
・更新履歴
------------------------------------------------------------------------------------------
2024/5/24
ver3.77
・日常系コマンド;反発刻印所持時の分岐を大量に追加。他、細々と加筆修正

また１年ぶりの更新です
次回更新はイベント口上を大幅加筆修正予定

------------------------------------------------------------------------------------------
2023/4/18
ver3.76β
・日常系コマンド;全体的に加筆

ほぼ書き直すつもりで加筆・修正しました。まともな更新は１年半ぶりくらい……？
完成してから出すつもりでしたが１年以上かかりそう＆ＰＣ不調によりバックアップがてら更新
------------------------------------------------------------------------------------------
2022/3/12
ver3.75
・イベント;[UPDATE]の処理を一部修正
・日常系コマンド;食事に誘うの構文が間違っていたのを修正

テンプレもかなり更新されたし移植がてら口上を大幅に加筆修正しようか計画中
やるにしてもレイセン・勇儀・豊姫が落ち着いてからになると思います

------------------------------------------------------------------------------------------
2021/9/2
ver3.74
・イベント;[UPDATE]でドレミーの起床時間を変更できるようにしました
・派生コマンド;とりあえず埋めてそのままだったコマンドを一部加筆しました
（シックスナイン・Gスポット刺激・手淫フェラ・挿入Ｇスポ責め・６９パイズリ・パイズリフェラ）
・その他、誤字修正など
------------------------------------------------------------------------------------------
2021/6/18
ver3.73
・イベント;[UPDATE]でバストサイズを変更する際の母乳体質を1から2に変更
・日常系コマンド;[お酒をふるまう]の記述ミスを修正
------------------------------------------------------------------------------------------
2021/5/20
ver3.72
・イベント;誤字・構文ミス修正
・性交系コマンド;誤字修正
・日常系コマンド;誤字修正
・スレで報告を頂いたミスを修正
------------------------------------------------------------------------------------------
―2021―
4/26 ver3.71
4/21 ver3.7
3/25 ver3.61
3/19 ver3.6
―2020―
11/25 ver3.51
11/23 ver3.5
10/24 ver3.42
10/10 ver3.41
10/6 ver3.4
8/26 ver3.3
8/19 ver3.2
8/16 ver3.1
8/8  ver3.0
7/27 ver2.95
7/22 ver2.9
7/14 ver2.8
7/11 ver2.7
7/8  ver2.62
7/7  ver2.6
6/29 ver2.5
6/25 ver2.4
6/20 ver2.31
6/18 ver2.2
6/15 ver2.1
6/14 ver2.0
6/13 ver1.01
6/12 ver1.0 
6/10 作成開始 
水増しを無くして空いた部分を新規に加筆しました（特に恋慕・恋人口上）
他のコマンドも色々と加筆したり構文を変えたりしてあります

性交系コマンドはアナル開発度が低い時の分岐を加筆
他、性交系関数を新設して全体的に水増し

刻印取得は快楽刻印、不埒刻印取得時の口上を書き直しました

奉仕系コマンドは結構書き直しました
最初期に書いてからそのまま放置してたので今見たら酷かった

新規で書き直す予定だがまだ手を付けていないファイルは同梱していません
特に絶頂系口上はかなり昔に書いたので今見ると……

------------------------------------------------------------------------------------------
―2020―
2020/11/25 ver3.51
2020/11/23 ver3.5
2020/10/24 ver3.42
2020/10/10 ver3.41
2020/10/6 ver3.4
2020/8/26 ver3.3
2020/8/19 ver3.2
2020/8/16 ver3.1
2020/8/8  ver3.0
2020/7/27 ver2.95
2020/7/22 ver2.9
2020/7/14 ver2.8
2020/7/11 ver2.7
2020/7/8  ver2.62
2020/7/7  ver2.6
2020/6/29 ver2.5
2020/6/25 ver2.4
2020/6/20 ver2.31
2020/6/18 ver2.2
2020/6/15 ver2.1
2020/6/14 ver2.0
2020/6/13 ver1.01
2020/6/12 ver1.0 
2020/6/10 作成開始 
